{
  "project_info": {
    "project_number": "1073706588865",
    "firebase_url": "https://chat-module-990a9.firebaseio.com",
    "project_id": "chat-module-990a9",
    "storage_bucket": "chat-module-990a9.appspot.com"
  },
  "client": [
    {
      "client_info": {
        "mobilesdk_app_id": "1:1073706588865:android:f6e47ec22f8f4823",
        "android_client_info": {
          "package_name": "com.firebase.ionicchat"
        }
      },
      "oauth_client": [
        {
          "client_id": "1073706588865-pvoa8j29em45j612358dolis90lvr2bb.apps.googleusercontent.com",
          "client_type": 1,
          "android_info": {
            "package_name": "com.firebase.ionicchat",
            "certificate_hash": "5b0526c4b76e1eeb0a407adc5ba4b445ca096bcf"
          }
        },
        {
          "client_id": "1073706588865-7rmamr8urgsuacoqfgs30dld3q1bu50b.apps.googleusercontent.com",
          "client_type": 3
        }
      ],
      "api_key": [
        {
          "current_key": "AIzaSyD7lD0D3NCR8X9pSBjKziBdJfsstD0ZpFE"
        }
      ],
      "services": {
        "analytics_service": {
          "status": 1
        },
        "appinvite_service": {
          "status": 2,
          "other_platform_oauth_client": [
             {
              "client_id": "1073706588865-7rmamr8urgsuacoqfgs30dld3q1bu50b.apps.googleusercontent.com",
              "client_type": 3
            },
            {
              "client_id": "1073706588865-dpd5ebuplsvs4f3bdrmqk14sc9efbptd.apps.googleusercontent.com",
              "client_type": 2,
              "ios_info": {
                "bundle_id": "com.firebase.ionicchat"
              }
            }
           
          ]
        },
        "ads_service": {
          "status": 2
        }
      }
    }
  ],
  "configuration_version": "1"
}